{"current_page":1,"data":[{"id":1,"name":"manuchehr.zare","email":"test@example.com","email_verified_at":"2023-02-12T23:12:37.000000Z","created_at":"2023-02-12T23:12:37.000000Z","updated_at":"2023-02-12T23:12:37.000000Z"},{"id":2,"name":"mahmoudieh.shapour","email":"omid.kadivar@example.net","email_verified_at":"2023-02-12T23:12:37.000000Z","created_at":"2023-02-12T23:12:37.000000Z","updated_at":"2023-02-12T23:12:37.000000Z"},{"id":3,"name":"khosrow.abbasi","email":"bita48@example.net","email_verified_at":"2023-02-12T23:12:37.000000Z","created_at":"2023-02-12T23:12:37.000000Z","updated_at":"2023-02-12T23:12:37.000000Z"},{"id":4,"name":"anousheh.abedini","email":"ikhomeini@example.org","email_verified_at":"2023-02-12T23:12:37.000000Z","created_at":"2023-02-12T23:12:37.000000Z","updated_at":"2023-02-12T23:12:37.000000Z"},{"id":5,"name":"hamadani.ali","email":"shahin.mahmoudieh@example.net","email_verified_at":"2023-02-12T23:12:37.000000Z","created_at":"2023-02-12T23:12:37.000000Z","updated_at":"2023-02-12T23:12:37.000000Z"},{"id":6,"name":"gyazdi","email":"babak.nafisi@example.org","email_verified_at":"2023-02-12T23:12:37.000000Z","created_at":"2023-02-12T23:12:37.000000Z","updated_at":"2023-02-12T23:12:37.000000Z"},{"id":7,"name":"farideh.shirazi","email":"abbasi.sara@example.net","email_verified_at":"2023-02-12T23:12:37.000000Z","created_at":"2023-02-12T23:12:37.000000Z","updated_at":"2023-02-12T23:12:37.000000Z"},{"id":8,"name":"bita94","email":"yazdani.maziar@example.org","email_verified_at":"2023-02-12T23:12:37.000000Z","created_at":"2023-02-12T23:12:37.000000Z","updated_at":"2023-02-12T23:12:37.000000Z"},{"id":9,"name":"nfekri","email":"omid55@example.net","email_verified_at":"2023-02-12T23:12:37.000000Z","created_at":"2023-02-12T23:12:37.000000Z","updated_at":"2023-02-12T23:12:37.000000Z"},{"id":10,"name":"aabdullahi","email":"farangis53@example.net","email_verified_at":"2023-02-12T23:12:37.000000Z","created_at":"2023-02-12T23:12:37.000000Z","updated_at":"2023-02-12T23:12:37.000000Z"}],"first_page_url":"https:\/\/json.xstack.ir\/api\/v1\/users?page=1","from":1,"last_page":3,"last_page_url":"https:\/\/json.xstack.ir\/api\/v1\/users?page=3","links":[{"url":null,"label":"pagination.previous","active":false},{"url":"https:\/\/json.xstack.ir\/api\/v1\/users?page=1","label":"1","active":true},{"url":"https:\/\/json.xstack.ir\/api\/v1\/users?page=2","label":"2","active":false},{"url":"https:\/\/json.xstack.ir\/api\/v1\/users?page=3","label":"3","active":false},{"url":"https:\/\/json.xstack.ir\/api\/v1\/users?page=2","label":"pagination.next","active":false}],"next_page_url":"https:\/\/json.xstack.ir\/api\/v1\/users?page=2","path":"https:\/\/json.xstack.ir\/api\/v1\/users","per_page":10,"prev_page_url":null,"to":10,"total":30}